\relax 
\citation{freiburghaus1999r}
\citation{beniamini2016natal}
\citation{korobkin2012astrophysical}
\citation{martin2016impact}
\citation{prism}
\citation{martin2016impact}
\newlabel{FirstPage}{{}{1}{}{}{}}
\newlabel{sec1}{{I}{1}{}{}{}}
\@writefile{toc}{\contentsline {section}{\numberline {I}Introduction}{1}{}}
\newlabel{sec2}{{II}{1}{}{}{}}
\@writefile{toc}{\contentsline {section}{\numberline {II}Test Calculation}{1}{}}
\newlabel{sec20u}{{II\tmspace  +\thinmuskip {.1667em}A}{1}{}{}{}}
\@writefile{toc}{\contentsline {subsection}{\numberline {A}Preparation}{1}{}}
\newlabel{eq:localDensityOfSpecificNeutinoDensities}{{II\tmspace  +\thinmuskip {.1667em}A}{1}{}{}{}}
\newlabel{eq:localDensitiesOfDistribution}{{2}{1}{}{}{}}
\newlabel{sec21}{{II\tmspace  +\thinmuskip {.1667em}B}{2}{}{}{}}
\@writefile{toc}{\contentsline {subsection}{\numberline {B}No neutrino}{2}{}}
\newlabel{sec21}{{II\tmspace  +\thinmuskip {.1667em}C}{2}{}{}{}}
\@writefile{toc}{\contentsline {subsection}{\numberline {C}With neutrino but no oscillation}{2}{}}
\citation{meyer1994r}
\citation{martin2016impact,korobkin2012astrophysical}
\citation{frensel2017neutrino}
\newlabel{sec22}{{II\tmspace  +\thinmuskip {.1667em}D}{3}{}{}{}}
\@writefile{toc}{\contentsline {subsection}{\numberline {D}Test pseudo-multi angle(with static neutrino scheme?)}{3}{}}
\newlabel{sec22}{{II\tmspace  +\thinmuskip {.1667em}E}{3}{}{}{}}
\@writefile{toc}{\contentsline {subsection}{\numberline {E}Test pseudo-multi angle(with dynamical neutrino scheme?)}{3}{}}
\@writefile{toc}{\contentsline {section}{\numberline {III}Appendix}{3}{}}
\@writefile{toc}{\contentsline {subsection}{\numberline {A}Nuclear Statistics equilibrium}{3}{}}
\@writefile{toc}{\contentsline {subsection}{\numberline {B}Second step}{3}{}}
\@writefile{toc}{\contentsline {subsection}{\numberline {C}Appendix B: Neutrino Capture rate}{3}{}}
\bibdata{ref.bib}
\bibcite{freiburghaus1999r}{{1}{1999}{{Freiburghaus\ \emph  {et~al.}}}{{Freiburghaus, Rosswog,\ and\ Thielemann}}}
\bibcite{beniamini2016natal}{{2}{2016}{{Beniamini\ \emph  {et~al.}}}{{Beniamini, Hotokezaka,\ and\ Piran}}}
\bibcite{korobkin2012astrophysical}{{3}{2012}{{Korobkin\ \emph  {et~al.}}}{{Korobkin, Rosswog, Arcones,\ and\ Winteler}}}
\bibcite{martin2016impact}{{4}{2016}{{Martin\ \emph  {et~al.}}}{{Martin, Arcones, Nazarewicz,\ and\ Olsen}}}
\@writefile{toc}{\contentsline {subsection}{\numberline {D}Pseudo-multi angle}{4}{}}
\@writefile{toc}{\contentsline {subsection}{\numberline {E}Electron Screening}{4}{}}
\@writefile{toc}{\contentsline {subsection}{\numberline {F}Nuclear Input Data}{4}{}}
\@writefile{toc}{\contentsline {subsection}{\numberline {G}Procedure}{4}{}}
\@writefile{toc}{\contentsline {subsection}{\numberline {H}Notes}{4}{}}
\@writefile{toc}{\contentsline {section}{\numberline {}References}{4}{}}
\bibcite{prism}{{5}{}{{{Matthew Mumpower, Trevor Sprouse}}}{{}}}
\bibcite{meyer1994r}{{6}{1994}{{Meyer}}{{}}}
\bibcite{frensel2017neutrino}{{7}{2017}{{Frensel\ \emph  {et~al.}}}{{Frensel, Wu, Volpe,\ and\ Perego}}}
\global \chardef \firstnote@num\z@ \relax 
\bibstyle{apsrev4-1}
\newlabel{LastBibItem}{{7}{5}{}{}{}}
\newlabel{LastPage}{{}{5}}
