\relax 
\bibcite{d0det}{{1}{}{{}}{{}}}
\bibcite{d0lumi}{{2}{}{{}}{{}}}
\bibcite{pdg}{{3}{}{{}}{{}}}
\bibcite{geant}{{4}{}{{}}{{}}}
\bibcite{pythia}{{5}{}{{}}{{}}}
\bibcite{cteq}{{6}{}{{}}{{}}}
\bibcite{cls}{{7}{}{{}}{{}}}
\bibcite{d0limit}{{8}{}{{}}{{}}}
\bibcite{d0jets}{{9}{}{{}}{{}}}
\global \chardef \firstnote@num\z@ \relax 
\providecommand\NAT@force@numbers{}\NAT@force@numbers
\bibstyle{apsrev}
\newlabel{FirstPage}{{}{1}{}{}{}}
\newlabel{sec:level1}{{I}{1}{}{}{}}
\@writefile{toc}{\contentsline {section}{\numberline {I}Evolution of the multi-energy system}{1}{}}
\newlabel{sec:level1}{{I\tmspace  +\thinmuskip {.1667em}A}{1}{}{}{}}
\@writefile{toc}{\contentsline {subsection}{\numberline {A} In isospin}{1}{}}
\@writefile{toc}{\contentsline {subsubsection}{\numberline {1}}{1}{}}
\@writefile{toc}{\contentsline {section}{\numberline {}References}{1}{}}
\newlabel{LastBibItem}{{9}{1}{}{}{}}
\newlabel{LastPage}{{}{1}}
